active-directory==0.6
appdirs==1.4.3
asn1crypto==0.22.0
backports-abc==0.4
backports.ssl-match-hostname==3.5.0.1
certifi==2016.2.28
cffi==1.10.0
Cheetah==2.4.4
CherryPy==5.1.0
ciscoconfparse==1.2.39
click==6.6
colorama==0.3.6
cryptography==1.8.1
cv2==1.0
cycler==0.10.0
decorator==4.0.9
dnspython==1.12.0
ecdsa==0.13
enum34==1.1.6
Fabric==1.10.2
Flask==0.11.1
functools32==3.2.3.post2
idna==2.5
ipaddr==2.1.11
ipaddress==1.0.18
ipykernel==4.3.1
ipython==4.1.2
ipython-genutils==0.1.0
ipywidgets==4.1.1
itsdangerous==0.24
jdcal==1.0
Jinja2==2.8
jsonschema==2.5.1
jupyter==1.0.0
jupyter-client==4.1.1
jupyter-console==4.1.1
jupyter-core==4.0.6
List==1.3.0
logger==1.4
Markdown==2.6.6
MarkupSafe==0.23
matplotlib==2.0.0
mistune==0.7.2
nbconvert==4.1.0
nbformat==4.0.1
netaddr==0.7.18
netmiko==1.3.0
networkx==1.11
nose==1.3.4
notebook==4.2.0
numpy==1.12.1
openpyxl==2.2.5
packaging==16.8
pandas==0.18.1
pandas-datareader==0.2.1
paramiko==2.1.2
path.py==8.1.2
pickleshare==0.6
pyasn1==0.2.3
pycparser==2.17
pycrypto==2.6.1
Pygments==2.1.2
pyparsing==2.2.0
pyreadline==2.1
python-dateutil==2.6.0
pytz==2017.2
pywin32==219
PyYAML==3.12
pyzmq==15.2.0
qtconsole==4.2.1
requests==2.10.0
requests-file==1.4
scp==0.10.2
simplegeneric==0.8.1
singledispatch==3.4.0.3
six==1.10.0
SQLAlchemy==0.9.9
Sys==1.0
tornado==4.3
traitlets==4.1.0
urllib3==1.14
virtualenv==15.1.0
Werkzeug==0.11.10
WTForms==2.1
XlsxWriter==0.7.3
