Gridsize: 4x4
A..A

B...

C..B

...C
Initial Pairs: [['a1', 'a4'], ['c1', 'd4'], ['b1', 'c4']]
Valid Neighbors: {'a1': ['a2'], 'a4': ['a3', 'b4'], 'b1': ['b2'], 'c1': ['c2', 'd1'], 'd4': ['d3'], 'c4': ['c3', 'b4']}
Finding paths
Paths for color 1: 8
After filtering: 2
Paths for color 2: 8
After filtering: 4
Paths for color 3: 8
After filtering: 4
3
['a1', 'a2', 'a3', 'b3', 'b4', 'a4']
2
a1
2
a
2
a
2
a
2
a
2
a
2
a
2
a
2
a
2
a
2
a
2
a
2
a
2
a
2
a
2
a
2
a
2
a
2
a
2
a
2
a
2
a
2
a
2
a
2
a
2
a
2
a
2
a
2
a
2
a
2
a
2
a
2
a
2
a
2
a
2
a
2
a
2
a
2
a
2
a
2
a
2
a
2
a
2
a
2
a
2
a
2
a
2
a
2
a
2
a
2
a
2
a
2
a
2
a
2
a
2
a
2
a
2
a
2
a
2
a
2
a
2
a
2
a
2
a
2
a
2
a
2
a
2
a
2
a
2
a
2
a
2
a
2
a
2
a
2
a
2
a
2
a
2
a
2
a
2
a
2
a
2
a
2
a
2
a
2
a
2
a
2
a
2
a
2
a
2
a
2
a
2
a
2
a
2
a
2
a
2
a
2
a
2
a
2
a
2
a
2
a
2
a
2
a
2
a
2
a
2
a
2
a
2
a
2
a
2
a
2
a
2
a
2
a
2
a
2
a
2
a
2
a
2
a
2
a
2
a
2
a
2
a
2
a
2
a
2
a
2
a
2
a
2
a
2
a
2
a
2
a
2
a
2
a
2
a
2
a
2
a
2
a
2
a
2
a
2
a
2
a
2
a
2
a
2
a
2
a
2
a
2
a
2
a
2
a
2
a
2
a
2
a
2
a
2
a
2
a
2
a
2
a
2
a
2
a
2
a
2
a
2
a
2
a
2
a
2
a
2
a
2
a
2
a
2
a
2
a
2
a
2
a
2
a
2
a
2
a
2
a
2
a
2
a
2
a
2
a
2
a
2
a
2
a
2
a
2
a
2
a
2
a
2
a
2
a
2
a
2
a
2
a
2
a
2
a
2
a
2
a
2
a
2
a
2
a
2
a
2
a
2
a
2
a
2
a
2
a
2
a
2
a
2
a
2
a
2
a
2
a
2
a
2
a
2
a
2
a
2
a
2
a
2
a
2
a
2
a
2
a
2
a
2
a
2
a
2
a
2
a
2
a
2
a
2
a
2
a
2
a
2
a
2
a
2
a
2
a
2
a
2
a
2
a
2
a
2
a
2
a
2
a
2
a
2
a
2
a
2
a
2
a
2
a
2
a
2
a
2
a
2
a
2
a
2
a
2
a
2
a
2
a
2
a
2
a
2
a
2
a
2
a
2
a
2
a
2
a
2
a
2
a
2
a
2
a
2
a
2
a
2
a
2
a
2
a
2
a
2
a
2
a
2
a
2
a
2
a
2
a
2
a
2
a
2
a
2
a
2
a
2
a
2
a
2
a
2
a
2
a
2
a
2
a
2
a
2
a
2
a
2
a
2
a
2
a
2
a
2
a
2
a
2
a
2
a
2
a
2
a
2
a
2
a
2
a
2
a
2
a
2
a
2
a
2
a
2
a
2
a
2
a
2
a
2
a
2
a
2
a
2
a
2
a
2
a
2
a
2
a
2
a
2
a
2
a
2
a
2
a
2
a
2
a
2
a
2
a
2
a
2
a
2
a
2
a
2
a
2
a
2
a
2
a
2
a
2
a
2
a
2
a
2
a
2
a
2
a
2
a
2
a
2
a
2
a
2
a
2
a
2
a
2
a
2
a
2
a
2
a
2
a
2
a
2
a
2
a
2
a
2
a
2
a
2
a
2
a
2
a
2
a
2
a
2
a
2
a
2
a
2
a
2
a
2
a
2
a
2
a
2
a
2
a
2
a
2
a
2
a
2
a
2
a
2
a
2
a
2
a
2
a
2
a
2
a
2
a
2
a
2
a
2
a
2
a
2
a
2
a
2
a
2
a
2
a
2
a
2
a
2
a
2
a
2
a
2
a
2
a
2
a
2
a
2
a
2
a
2
a
2
a
2
a
2
a
2
a
2
a
2
a
2
a
2
a
2
a
2
a
2
a
2
a
2
a
2
a
2
a
2
a
2
a
2
a
2
a
2
a
2
a
2
a
2
a
2
a
2
a
2
a
2
a
2
a
2
a
2
a
2
a
2
a
2
a
2
a
2
a
2
a
2
a
2
a
2
a
2
a
2
a
2
a
2
a
2
a
2
a
2
a
2
a
2
a
2
a
2
a
2
a
2
a
2
a
2
a
2
a
2
a
2
a
2
a
2
a
2
a
2
a
2
a
2
a
2
a
2
a
2
a
2
a
2
a
2
a
2
a
2
a
2
a
2
a
2
a
2
a
2
a
2
a
2
a
2
a
2
a
2
a
2
a
2
a
2
a
2
a
2
a
2
a
2
a
2
a
2
a
2
a
2
a
2
a
2
a
2
a
2
a
2
a
2
a
2
a
2
a
2
a
2
a
2
a
2
a
2
a
2
a
2
a
2
a
2
a
2
a
2
a
2
a
2
a
2
a
2
a
2
a
2
a
2
a
2
a
2
a
2
a
2
a
2
a
2
a
2
a
2
a
2
a
2
a
2
a
2
a
2
a
2
a
2
a
2
a
2
a
2
a
2
a
2
a
2
a
2
a
2
a
2
a
2
a
2
a
2
a
2
a
2
a
2
a
2
a
2
a
2
a
2
a
2
a
2
a
2
a
2
a
2
a
2
a
2
a
2
a
2
a
2
a
2
a
2
a
2
a
2
a
2
a
2
a
2
a
2
a
2
a
2
a
2
a
2
a
2
a
2
a
2
a
2
a
2
a
2
a
2
a
2
a
2
a
2
a
2
a
2
a
2
a
2
a
2
a
2
a
2
a
2
a
2
a
2
a
2
a
2
a
2
a
2
a
2
a
2
a
2
a
2
a
2
a
2
a
2
a
2
a
2
a
2
a
2
a
2
a
2
a
2
a
2
a
2
a
2
a
2
a
2
a
2
a
2
a
2
a
2
a
2
a
2
a
2
a
2
a
2
a
2
a
2
a
2
a
2
a
2
a
2
a
2
a
2
a
2
a
2
a
2
a
2
a
2
a
2
a
2
a
2
a
2
a
2
a
2
a
2
a
2
a
2
a
2
a
2
a
2
a
2
a
2
a
2
a
2
a
2
a
2
a
2
a
2
a
2
a
2
a
2
a
2
a
2
a
2
a
2
a
2
a
2
a
2
a
2
a
2
a
2
a
2
a
2
a
2
a
2
a
2
a
2
a
2
a
2
a
2
a
2
a
2
a
2
a
2
a
2
a
2
a
2
a
2
a
2
a
2
a
2
a
2
a
2
a
2
a
2
a
2
a
2
a
2
a
2
a
2
a
2
a
2
a
2
a
2
a
2
a
2
a
2
a
2
a
2
a
2
a
2
a
2
a
2
a
2
a
2
a
2
a
2
a
2
a
2
a
2
a
2
a
2
a
2
a
2
a
2
a
2
a
2
a
2
a
2
a
2
a
2
a
2
a
2
a
2
a
2
a
2
a
2
a
2
a
2
a
2
a
2
a
2
a
2
a
2
a
2
a
2
a
2
a
2
a
2
a
2
a
2
a
2
a
2
a
2
a
2
a
2
a
2
a
2
a
2
a
2
a
2
a
2
a
2
a
2
a
2
a
2
a
2
a
2
a
2
a
2
a
2
a
2
a
2
a
2
a
2
a
2
a
2
a
2
a
2
a
2
a
2
a
2
a
2
a
2
a
2
a
2
a
2
a
2
a
2
a
2
a
2
a
2
a
2
a
2
a
2
a
2
a
2
a
2
a
2
a
2
a
2
a
2
a
2
a
2
a
2
a
2
a
2
a
2
a
2
a
2
a
2
a
2
a
2
a
2
a
2
a
2
a
2
a
2
a
2
a
2
a
2
a
2
a
2
a
2
a
2
a
2
a
2
a
2
a
2
a
2
a
2
a
2
a
2
a
2
a
2
a
2
a
2
a
2
a
2
a
2
a
2
a
2
a
2
a
2
a
2
a
2
a
2
a
2
a
2
a
2
a
2
a
2
a
2
a
2
a
2
a
2
a
2
a
2
a
2
a
2
a
2
a
2
a
2
a
2
a
2
a
2
a
2
a
2
a
2
a
2
a
2
a
2
a
2
a
2
a
2
a
2
a
2
a
2
a
2
a
2
a
2
a
2
a
2
a
2
a
2
a
2
a
2
a
2
a
2
a
2
a
2
a
2
a
2
a
2
a
2
a
2
a
2
a
2
a
2
a
2
a
2
a
2
a
2
a
2
a
2
a
2
a
2
a
2
a
2
a
2
a
2
a
2
a
2
a
2
a
2
a
2
a
2
a
2
a
2
a
2
a
2
a
2
a
2
a
2
a
2
a
2
a
2
a
2
a
2
a
2
a
2
a
2
a
2
a
2
a
2
a
2
a
2
a
2
a
2
a
2
a
2
a
2
a
2
a
2
a
2
a
2
a
2
a
2
a
2
a
2
a
2
a
2
a
2
a
2
a
2
a
2
a
2
a
2
a
2
a
2
a
2
a
2
a
2
a
2
a
2
a
2
a
2
a
2
a
2
a
2
a
2
a
2
a
2
a
2
a
2
a
2
a
2
a
2
a
2
a
2
a
