  <product name="RCA">
    <addresslist type="IPv4">
isInNet(hostIP,"13.67.59.89","255.255.255.255") ||
isInNet(hostIP,"40.69.150.142","255.255.255.255") ||
isInNet(hostIP,"40.85.91.8","255.255.255.255") ||
isInNet(hostIP,"104.211.54.99","255.255.255.255") ||
isInNet(hostIP,"104.211.54.134","255.255.255.255") ||
    </addresslist>
    <addresslist type="IPv6" />
  </product>
